MA 5124 Financial Time Series Analysis and Forecasting
…
A `mable` is a model table, each cell corresponds to a fitted model.
---
## Producing forecasts

``` r
brick_fc <- brick_fit |>
  forecast(h = "5 years")

print(brick_fc)
```

```
## # A fable: 80 x 4 [1Q]
## # Key:     .model [4]
##    .model         Quarter       Bricks .mean
##    <chr>            <qtr>       <dist> <dbl>
##  1 Seasonal_naive 2005 Q3 N(428, 2336)   428
##  2 Seasonal_naive 2005 Q4 N(397, 2336)   397
##  3 Seasonal_naive 2006 Q1 N(355, 2336)   355
##  4 Seasonal_naive 2006 Q2 N(435, 2336)   435
##  5 Seasonal_naive 2006 Q3 N(428, 4672)   428
##  6 Seasonal_naive 2006 Q4 N(397, 4672)   397
##  7 Seasonal_naive 2007 Q1 N(355, 4672)   355
##  8 Seasonal_naive 2007 Q2 N(435, 4672)   435
##  9 Seasonal_naive 2007 Q3 N(428, 7008)   428
## 10 Seasonal_naive 2007 Q4 N(397, 7008)   397
## # ℹ 70 more rows
```
…
```
# A mable: 1 x 2
# Key:     Symbol [1]
  Symbol `NAIVE(Close)`
  <chr>         <model>
1 FB            <NAIVE>
```

``` r
augment(fit)
```

```
# A tsibble: 1,258 x 7 [1]
# Key:       Symbol, .model [1]
   Symbol .model       trading_day Close .fitted .resid .innov
   <chr>  <chr>              <int> <dbl>   <dbl>  <dbl>  <dbl>
 1 FB     NAIVE(Close)           1  54.7    NA   NA     NA    
 2 FB     NAIVE(Close)           2  54.6    54.7 -0.150 -0.150
 3 FB     NAIVE(Close)           3  57.2    54.6  2.64   2.64 
 4 FB     NAIVE(Close)           4  57.9    57.2  0.720  0.720
 5 FB     NAIVE(Close)           5  58.2    57.9  0.310  0.310
 6 FB     NAIVE(Close)           6  57.2    58.2 -1.01  -1.01 
 7 FB     NAIVE(Close)           7  57.9    57.2  0.720  0.720
 8 FB     NAIVE(Close)           8  55.9    57.9 -2.03  -2.03 
 9 FB     NAIVE(Close)           9  57.7    55.9  1.83   1.83 
10 FB     NAIVE(Close)          10  57.6    57.7 -0.140 -0.140
# ℹ 1,248 more rows
```
…
where `\(\hat\sigma_h\)` is the st dev of the `\(h\)`-step distribution.

 * When `\(h=1\)`, `\(\hat\sigma_h\)` can be estimated from the residuals.
 
---

## Prediction intervals

``` r
brick_fc |> hilo(level = 95)
```

```
## # A tsibble: 80 x 5 [1Q]
## # Key:       .model [4]
##    .model         Quarter       Bricks .mean                  `95%`
##    <chr>            <qtr>       <dist> <dbl>                 <hilo>
##  1 Seasonal_naive 2005 Q3 N(428, 2336)   428 [333.2737, 522.7263]95
##  2 Seasonal_naive 2005 Q4 N(397, 2336)   397 [302.2737, 491.7263]95
##  3 Seasonal_naive 2006 Q1 N(355, 2336)   355 [260.2737, 449.7263]95
##  4 Seasonal_naive 2006 Q2 N(435, 2336)   435 [340.2737, 529.7263]95
##  5 Seasonal_naive 2006 Q3 N(428, 4672)   428 [294.0368, 561.9632]95
##  6 Seasonal_naive 2006 Q4 N(397, 4672)   397 [263.0368, 530.9632]95
##  7 Seasonal_naive 2007 Q1 N(355, 4672)   355 [221.0368, 488.9632]95
##  8 Seasonal_naive 2007 Q2 N(435, 4672)   435 [301.0368, 568.9632]95
##  9 Seasonal_naive 2007 Q3 N(428, 7008)   428 [263.9292, 592.0708]95
## 10 Seasonal_naive 2007 Q4 N(397, 7008)   397 [232.9292, 561.0708]95
## # ℹ 70 more rows
```
…
## US Retail Employment

``` r
us_retail_employment <- us_employment |>
  filter(year(Month) >= 1990, Title == "Retail Trade") |>
  select(-Series_ID)
us_retail_employment
```

```
## # A tsibble: 357 x 3 [1M]
##       Month Title        Employed
##       <mth> <chr>           <dbl>
##  1 1990 Jan Retail Trade   13256.
##  2 1990 Feb Retail Trade   12966.
##  3 1990 Mar Retail Trade   12938.
##  4 1990 Apr Retail Trade   13012.
##  5 1990 May Retail Trade   13108.
##  6 1990 Jun Retail Trade   13183.
##  7 1990 Jul Retail Trade   13170.
##  8 1990 Aug Retail Trade   13160.
##  9 1990 Sep Retail Trade   13113.
## 10 1990 Oct Retail Trade   13185.
## # ℹ 347 more rows
```

---
  
## US Retail Employment

``` r
dcmp <- us_retail_employment |>
  model(STL(Employed)) |>
  components() |> 
  select(-.model)
dcmp
```

```
## # A tsibble: 357 x 6 [1M]
##       Month Employed  trend season_year remainder season_adjust
##       <mth>    <dbl>  <dbl>       <dbl>     <dbl>         <dbl>
##  1 1990 Jan   13256. 13288.      -33.0      0.836        13289.
##  2 1990 Feb   12966. 13269.     -258.     -44.6          13224.
##  3 1990 Mar   12938. 13250.     -290.     -22.1          13228.
##  4 1990 Apr   13012. 13231.     -220.       1.05         13232.
##  5 1990 May   13108. 13211.     -114.      11.3          13223.
##  6 1990 Jun   13183. 13192.      -24.3     15.5          13207.
##  7 1990 Jul   13170. 13172.      -23.2     21.6          13193.
##  8 1990 Aug   13160. 13151.       -9.52    17.8          13169.
##  9 1990 Sep   13113. 13131.      -39.5     22.0          13153.
## 10 1990 Oct   13185. 13110.       61.6     13.2          13124.
## # ℹ 347 more rows
```
…
A good way to choose the best forecasting model is to find the model with the smallest RMSE computed using time series cross-validation.

---
## Time series cross-validation 

Stretch with a minimum length of 3, growing by 1 each step.

``` r
fb_stretch <- fb_stock |>
  stretch_tsibble(.init = 3, .step = 1) |>
  filter(.id != max(.id))
```

```
## # A tsibble: 790,650 x 4 [1]
## # Key:       .id [1,255]
##    Date       Close trading_day   .id
##    <date>     <dbl>       <int> <int>
##  1 2014-01-02  54.7           1     1
##  2 2014-01-03  54.6           2     1
##  3 2014-01-06  57.2           3     1
##  4 2014-01-02  54.7           1     2
##  5 2014-01-03  54.6           2     2
##  6 2014-01-06  57.2           3     2
##  7 2014-01-07  57.9           4     2
##  8 2014-01-02  54.7           1     3
##  9 2014-01-03  54.6           2     3
## 10 2014-01-06  57.2           3     3
## 11 2014-01-07  57.9           4     3
## 12 2014-01-08  58.2           5     3
## 13 2014-01-02  54.7           1     4
## 14 2014-01-03  54.6           2     4
## 15 2014-01-06  57.2           3     4
## # ℹ 790,635 more rows
```
---

## Time series cross-validation 

Estimate RW w/ drift models for each window.

``` r
fit_cv <- fb_stretch |>
  model(RW(Close ~ drift()))
```

```
## # A mable: 1,255 x 3
## # Key:     .id, Symbol [1,255]
##     .id Symbol `RW(Close ~ drift())`
##   <int> <chr>                <model>
## 1     1 FB             <RW w/ drift>
## 2     2 FB             <RW w/ drift>
## 3     3 FB             <RW w/ drift>
## 4     4 FB             <RW w/ drift>
## # … with 1,251 more rows
```
---

## Time series cross-validation 

Produce one step ahead forecasts from all models.

``` r
fc_cv <- fit_cv |>
  forecast(h=1)
```

```
## # A fable: 1,255 x 5 [1]
## # Key:     .id, Symbol [1,255]
##     .id Symbol trading_day      Close .mean
##   <int> <chr>        <dbl>     <dist> <dbl>
## 1     1 FB               4 N(58, 5.8)  58.4
## 2     2 FB               5 N(59, 2.7)  59.0
## 3     3 FB               6 N(59, 1.9)  59.1
## 4     4 FB               7 N(58, 2.2)  57.7
## # ℹ 1,251 more rows
```
…
